இது ஒரு ஆய்வு செய்தி. இந்த செய்தியை நீங்கள் புறக்கணிக்கலாம்.

 $ பட்டியல் பெயர் அஞ்சல் பட்டியல் உங்களிடமிருந்து பல பவுன்ச் பெற்றுள்ளது,
 $ sender_email க்கு செய்திகளை வழங்குவதில் சிக்கல் இருக்கலாம் என்பதைக் குறிக்கிறது. A
 மாதிரி கீழே இணைக்கப்பட்டுள்ளது. இருப்பதை உறுதிப்படுத்த இந்த செய்தியை ஆராயுங்கள்
 உங்கள் மின்னஞ்சல் முகவரியில் எந்த பிரச்சனையும் இல்லை. உங்கள் அஞ்சலுடன் சரிபார்க்க விரும்பலாம்
 மேலும் உதவிக்கு நிர்வாகி.

 அஞ்சல் பட்டியலில் இயக்கப்பட்ட உறுப்பினராக இருக்க நீங்கள் எதுவும் செய்ய தேவையில்லை.

 உங்களிடம் ஏதேனும் கேள்விகள் அல்லது சிக்கல்கள் இருந்தால், நீங்கள் அஞ்சல் பட்டியல் உரிமையாளரை தொடர்பு கொள்ளலாம்
 at

 $ உரிமையாளர்_மெயில்
