$ பட்டியல் பெயர் அஞ்சல் பட்டியலுக்கான உங்கள் கோரிக்கை

 $ கோரிக்கை

 பட்டியல் மதிப்பீட்டாளரால் நிராகரிக்கப்பட்டுள்ளது. மதிப்பீட்டாளர் கொடுத்தார்
 உங்கள் கோரிக்கையை நிராகரிப்பதற்கான காரணத்தைத் தொடர்ந்து:

 "$ காரணம்"

 ஏதேனும் கேள்விகள் அல்லது கருத்துகள் பட்டியல் நிர்வாகிக்கு அனுப்பப்பட வேண்டும்
 at:

 $ உரிமையாளர்_மெயில்
